motor_tb.vcd
$date
	Thu Apr  3 10:42:34 2025
$end
$version
	Icarus Verilog
$end
$timescale
	1ns
$end
$scope module Testbench $end
$var wire 16 ! rpm [15:0] $end
$var wire 4 " estado2 [3:0] $end
$var wire 4 # estado1 [3:0] $end
$var reg 1 $ clk $end
$var reg 1 % rst $end
$scope function estado_str $end
$var reg 4 & estado [3:0] $end
$upscope $end
$scope module motor $end
$var wire 1 $ clk $end
$var wire 1 % rst $end
$var reg 4 ' estado1 [3:0] $end
$var reg 4 ( estado2 [3:0] $end
$var reg 16 ) rpm [15:0] $end
$upscope $end
$upscope $end
$enddefinitions $end
#0
$dumpvars
b0 )
b10 (
b1 '
bx &
1%
0$
b1 #
b10 "
b0 !
$end
#5000000
b10 &
1$
#10000000
0$
0%
#15000000
b1 !
b1 )
b100 "
b100 (
b10 #
b10 '
b10 &
1$
#20000000
0$
#25000000
b10 !
b10 )
b1000 "
b1000 (
b100 #
b100 '
b100 &
1$
#30000000
0$
#35000000
b11 !
b11 )
b1 "
b1 (
b1000 #
b1000 '
b1000 &
1$
#40000000
0$
#45000000
b100 !
b100 )
b10 "
b10 (
b1 #
b1 '
b1 &
1$
#50000000
0$
#55000000
b101 !
b101 )
b100 "
b100 (
b10 #
b10 '
b10 &
1$
#60000000
0$
#65000000
b110 !
b110 )
b1000 "
b1000 (
b100 #
b100 '
b100 &
1$
#70000000
0$
#75000000
b111 !
b111 )
b1 "
b1 (
b1000 #
b1000 '
b1000 &
1$
#80000000
0$
#85000000
b1000 !
b1000 )
b10 "
b10 (
b1 #
b1 '
b1 &
1$
#90000000
0$
#95000000
b1001 !
b1001 )
b100 "
b100 (
b10 #
b10 '
b10 &
1$
#100000000
0$
#105000000
b1010 !
b1010 )
b1000 "
b1000 (
b100 #
b100 '
b100 &
1$
#110000000
0$
#115000000
b1011 !
b1011 )
b1 "
b1 (
b1000 #
b1000 '
b1000 &
1$
#120000000
0$
#125000000
b1100 !
b1100 )
b10 "
b10 (
b1 #
b1 '
b1 &
1$
#130000000
0$
#135000000
b1101 !
b1101 )
b100 "
b100 (
b10 #
b10 '
b10 &
1$
#140000000
0$
#145000000
b1110 !
b1110 )
b1000 "
b1000 (
b100 #
b100 '
b100 &
1$
#150000000
0$
#155000000
b1111 !
b1111 )
b1 "
b1 (
b1000 #
b1000 '
b1000 &
1$
#160000000
0$
#165000000
b10000 !
b10000 )
b10 "
b10 (
b1 #
b1 '
b1 &
1$
#170000000
0$
#175000000
b10001 !
b10001 )
b100 "
b100 (
b10 #
b10 '
b10 &
1$
#180000000
0$
#185000000
b10010 !
b10010 )
b1000 "
b1000 (
b100 #
b100 '
b100 &
1$
#190000000
0$
#195000000
b10011 !
b10011 )
b1 "
b1 (
b1000 #
b1000 '
b1000 &
1$
#200000000
0$
#205000000
b10100 !
b10100 )
b10 "
b10 (
b1 #
b1 '
b1 &
1$
